{
  "Info": [
    {
      "OEM": "Optoma"
    }
  ],
  "OSDTree": [
    {
      "SelfId": "01",
      "ChildId": [
        {
          "SelfId": "02",
          "ChildId": [
            {
              "SelfId": "09"
            },
            {
              "SelfId": "10"
            },
            {
              "SelfId": "11"
            },
            {
              "SelfId": "12"
            },
            {
              "SelfId": "13"
            },
            {
              "SelfId": "14"
            }
          ]
        },
        {
          "SelfId": "04"
        }
      ]
    },
    {
      "SelfId": "52",
      "ChildId": [
        {
          "SelfId": "53"
        },
        {
          "SelfId": "54"
        },
        {
          "SelfId": "55"
        },
        {
          "SelfId": "56"
        },
        {
          "SelfId": "57"
        }
      ]
    },
    {
      "SelfId": "58",
      "ChildId": [
        {
          "SelfId": "59"
        },
        {
          "SelfId": "61",
          "ChildId": [
            {
              "SelfId": "72"
            },
            {
              "SelfId": "73"
            },
            {
              "SelfId": "74"
            }
          ]
        },
        {
          "SelfId": "65",
          "ChildId": [
            {
              "SelfId": "84"
            },
            {
              "SelfId": "87"
            },
            {
              "SelfId": "90"
            },
            {
              "SelfId": "91"
            }
          ]
        }
      ]
    },
    {
      "SelfId": "116",
      "ChildId": [
        {
          "SelfId": "117"
        },
        {
          "SelfId": "118"
        },
        {
          "SelfId": "119"
        },
        {
          "SelfId": "120"
        },
        {
          "SelfId": "121"
        },
        {
          "SelfId": "123",
          "ChildId": [
            {
              "SelfId": "130"
            },
            {
              "SelfId": "131"
            },
            {
              "SelfId": "132"
            },
            {
              "SelfId": "133"
            }
          ]
        },
        {
          "SelfId": "124"
        },
        {
          "SelfId": "125"
        },
        {
          "SelfId": "126"
        },
        {
          "SelfId": "127"
        },
        {
          "SelfId": "129",
          "ChildId": [
            {
              "SelfId": "134"
            },
            {
              "SelfId": "135"
            },
            {
              "SelfId": "136"
            },
            {
              "SelfId": "137"
            }
          ]
        }
      ]
    }
  ],
  "ObjectList": [
    {
      "CommandId": "0654",
      "UID": "01",
      "Title": "Display",
      "TAG_Title": "TAG_Title_MainMenu",
      "AssociatedAction": "None",
      "MenuType": "Image",
      "List": [
        {
          "Image": "osd_mainmenu_display_optoma_basic"
        }
      ]
    },
    {
      "CommandId": "0654",
      "UID": "02",
      "Title": "Image Settings",
      "TAG_Title": "TAG_Title_SubMenu",
      "AssociatedAction": "None",
      "MenuType": "Button"
    },
    {
      "CommandId": "0654",
      "UID": "03",
      "Title": "3D",
      "TAG_Title": "TAG_Title_SubMenu",
      "AssociatedAction": "None",
      "MenuType": "Button"
    },
    {
      "CommandId": "0801",
      "UID": "04",
      "Title": "Aspect Ratio",
      "TAG_Title": "TAG_Title_SubMenu",
      "AssociatedAction": "None",
      "MenuType": "List",
      "List": [
        {
          "text": "Auto",
          "value": "0"
        },
        {
          "text": "4:3",
          "value": "2"
        },
        {
          "text": "16:9",
          "value": "3"
        },
        {
          "text": "16:10",
          "value": "6"
        }
      ]
    },
    {
      "CommandId": "081A",
      "UID": "05",
      "Title": "Edge Mask",
      "TAG_Title": "TAG_Title_SubMenu",
      "AssociatedAction": "None",
      "MenuType": "SeekBar",
      "List": [
        {
          "minimum": "0",
          "value": "0"
        },
        {
          "maximum": "10",
          "value": "1"
        }
      ]
    },
    {
      "CommandId": "0805",
      "UID": "06",
      "Title": "Zoom",
      "TAG_Title": "TAG_Title_SubMenu",
      "AssociatedAction": "None",
      "MenuType": "SeekBar",
      "List": [
        {
          "minimum": "-5",
          "value": "0"
        },
        {
          "maximum": "25",
          "value": "1"
        }
      ]
    },
    {
      "CommandId": "0654",
      "UID": "07",
      "Title": "Image shift",
      "TAG_Title": "TAG_Title_SubMenu",
      "AssociatedAction": "None",
      "MenuType": "Button"
    },
    {
      "CommandId": "0654",
      "UID": "08",
      "Title": "Geometric Correction",
      "TAG_Title": "TAG_Title_SubMenu",
      "AssociatedAction": "None",
      "MenuType": "Button"
    },
    {
      "CommandId": "0654",
      "UID": "09",
      "Title": "Back",
      "TAG_Title": "TAG_Title_SubMenu",
      "AssociatedAction": "None",
      "MenuType": "Back"
    },
    {
      "CommandId": "0C18",
      "UID": "10",
      "Title": "Display Mode",
      "TAG_Title": "TAG_Title_SubMenu",
      "AssociatedAction": "MenuRegenerate",
      "MenuType": "List",
      "List": [
        {
          "text": "Bright",
          "value": "0"
        },
        {
          "text": "Presentation",
          "value": "1"
        },
        {
          "text": "Cinema",
          "value": "3"
        },
        {
          "text": "Game",
          "value": "8"
        },
        {
          "text": "Blending",
          "value": "9"
        },
        {
          "text": "User",
          "value": "4"
        }
      ]
    },
    {
      "CommandId": "0C09",
      "UID": "11",
      "Title": "Wall Color",
      "TAG_Title": "TAG_Title_SubMenu",
      "AssociatedAction": "None",
      "MenuType": "List",
      "List": [
        {
          "text": "Off",
          "value": "0"
        },
        {
          "text": "Light Yellow",
          "value": "1"
        },
        {
          "text": "Light Blue",
          "value": "2"
        },
        {
          "text": "Pink",
          "value": "3"
        },
        {
          "text": "Dark Green",
          "value": "4"
        }
      ]
    },
    {
      "CommandId": "0C01",
      "UID": "12",
      "Title": "Brightness",
      "TAG_Title": "TAG_Title_SubMenu",
      "AssociatedAction": "OncePropertyUpdate",
      "MenuType": "SeekBar",
      "List": [
        {
          "minimum": "0",
          "value": "0"
        },
        {
          "maximum": "100",
          "value": "1"
        }
      ]
    },
    {
      "CommandId": "0C02",
      "UID": "13",
      "Title": "Contrast",
      "TAG_Title": "TAG_Title_SubMenu",
      "AssociatedAction": "OncePropertyUpdate",
      "MenuType": "SeekBar",
      "List": [
        {
          "minimum": "0",
          "value": "0"
        },
        {
          "maximum": "100",
          "value": "1"
        }
      ]
    },
    {
      "CommandId": "0C11",
      "UID": "14",
      "Title": "Sharpness",
      "TAG_Title": "TAG_Title_SubMenu",
      "AssociatedAction": "OncePropertyUpdate",
      "MenuType": "SeekBar",
      "List": [
        {
          "minimum": "0",
          "value": "0"
        },
        {
          "maximum": "10",
          "value": "1"
        }
      ]
    },
    {
      "CommandId": "0C0A",
      "UID": "15",
      "Title": "Gamma",
      "TAG_Title": "TAG_Title_SubMenu",
      "AssociatedAction": "None",
      "MenuType": "List",
      "List": [
        {
          "text": "Film",
          "value": "0"
        },
        {
          "text": "Graphics",
          "value": "1"
        },
        {
          "text": "1.8",
          "value": "2"
        },
        {
          "text": "2.0",
          "value": "3"
        },
        {
          "text": "Standard(2.2)",
          "value": "4"
        },
        {
          "text": "2.6",
          "value": "5"
        },
        {
          "text": "Blackboard",
          "value": "6"
        },
        {
          "text": "DICOM",
          "value": "7"
        }
      ]
    },
    {
      "CommandId": "0654",
      "UID": "16",
      "Title": "Color Settings",
      "TAG_Title": "TAG_Title_SubMenu",
      "AssociatedAction": "None",
      "MenuType": "Button"
    },
    {
      "CommandId": "0654",
      "UID": "17",
      "Title": "Back",
      "TAG_Title": "TAG_Title_SubMenu",
      "AssociatedAction": "None",
      "MenuType": "Back"
    },
    {
      "CommandId": "0813",
      "UID": "18",
      "Title": "3D Mode",
      "TAG_Title": "TAG_Title_SubMenu",
      "AssociatedAction": "None",
      "MenuType": "List",
      "List": [
        {
          "text": "Auto",
          "value": "0"
        },
        {
          "text": "on",
          "value": "1"
        }
      ]
    },
    {
      "CommandId": "080D",
      "UID": "19",
      "Title": "3D Format",
      "TAG_Title": "TAG_Title_SubMenu",
      "AssociatedAction": "None",
      "MenuType": "List",
      "List": [
        {
          "text": "Auto",
          "value": "1"
        },
        {
          "text": "SBS",
          "value": "5"
        },
        {
          "text": "Top and Bottom",
          "value": "2"
        },
        {
          "text": "Frame Sequential",
          "value": "3"
        }
      ]
    },
    {
      "CommandId": "080E",
      "UID": "20",
      "Title": "3D Sync Invert",
      "TAG_Title": "TAG_Title_SubMenu",
      "AssociatedAction": "None",
      "MenuType": "List",
      "List": [
        {
          "text": "Off",
          "value": "0"
        },
        {
          "text": "On",
          "value": "1"
        }
      ]
    },
    {
      "CommandId": "0654",
      "UID": "21",
      "Title": "Back",
      "TAG_Title": "TAG_Title_SubMenu",
      "AssociatedAction": "None",
      "MenuType": "Back"
    },
    {
      "CommandId": "081B",
      "UID": "22",
      "Title": "Image Shift H",
      "TAG_Title": "TAG_Title_SubMenu",
      "AssociatedAction": "None",
      "MenuType": "SeekBar",
      "List": [
        {
          "minimum": "-50",
          "value": "0"
        },
        {
          "maximum": "50",
          "value": "1"
        }
      ]
    },
    {
      "CommandId": "081C",
      "UID": "23",
      "Title": "Image Shift V",
      "TAG_Title": "TAG_Title_SubMenu",
      "AssociatedAction": "None",
      "MenuType": "SeekBar",
      "List": [
        {
          "minimum": "-50",
          "value": "0"
        },
        {
          "maximum": "50",
          "value": "1"
        }
      ]
    },
    {
      "CommandId": "0654",
      "UID": "24",
      "Title": "Back",
      "TAG_Title": "TAG_Title_SubMenu",
      "AssociatedAction": "None",
      "MenuType": "Back"
    },
    {
      "CommandId": "0808",
      "UID": "25",
      "Title": "H Keystone",
      "TAG_Title": "TAG_Title_SubMenu",
      "AssociatedAction": "None",
      "MenuType": "SeekBar",
      "List": [
        {
          "minimum": "-40",
          "value": "0"
        },
        {
          "maximum": "40",
          "value": "1"
        }
      ]
    },
    {
      "CommandId": "0807",
      "UID": "26",
      "Title": "V Keystone",
      "TAG_Title": "TAG_Title_SubMenu",
      "AssociatedAction": "None",
      "MenuType": "SeekBar",
      "List": [
        {
          "minimum": "-40",
          "value": "0"
        },
        {
          "maximum": "40",
          "value": "1"
        }
      ]
    },
    {
      "CommandId": "0000",
      "UID": "27",
      "Title": "Warp Control",
      "TAG_Title": "TAG_Title_SubMenu",
      "AssociatedAction": "None",
      "MenuType": "List",
      "List": [
        {
          "text": "Off",
          "value": "0"
        },
        {
          "text": "Manual",
          "value": "1"
        },
        {
          "text": "Auto",
          "value": "2"
        }
      ]
    },
    {
      "CommandId": "0000",
      "UID": "28",
      "Title": "Warp Sharpness",
      "TAG_Title": "TAG_Title_SubMenu",
      "AssociatedAction": "None",
      "MenuType": "SeekBar",
      "List": [
        {
          "minimum": "0",
          "value": "0"
        },
        {
          "maximum": "9",
          "value": "1"
        }
      ]
    },
    {
      "CommandId": "0000",
      "UID": "29",
      "Title": "Warp Number",
      "TAG_Title": "TAG_Title_SubMenu",
      "AssociatedAction": "None",
      "MenuType": "List",
      "List": [
        {
          "text": "2x2",
          "value": "0"
        },
        {
          "text": "3x3",
          "value": "1"
        },
        {
          "text": "5x5",
          "value": "2"
        },
        {
          "text": "9x9",
          "value": "3"
        },
        {
          "text": "17x17",
          "value": "4"
        }
      ]
    },
    {
      "CommandId": "0000",
      "UID": "30",
      "Title": "Warp Inner",
      "TAG_Title": "TAG_Title_SubMenu",
      "AssociatedAction": "None",
      "MenuType": "Toggle",
      "List": [
        {
          "text": "Off",
          "value": "0"
        },
        {
          "text": "on",
          "value": "1"
        }
      ]
    },
    {
      "CommandId": "0000",
      "UID": "31",
      "Title": "Blend Setting",
      "TAG_Title": "TAG_Title_SubMenu",
      "AssociatedAction": "None",
      "MenuType": "Button"
    },
    {
      "CommandId": "0000",
      "UID": "32",
      "Title": "Grid Color",
      "TAG_Title": "TAG_Title_SubMenu",
      "AssociatedAction": "None",
      "MenuType": "List",
      "List": [
        {
          "text": "Green",
          "value": "0"
        },
        {
          "text": "Magenta",
          "value": "1"
        },
        {
          "text": "Red",
          "value": "2"
        },
        {
          "text": "Cyan",
          "value": "3"
        }
      ]
    },
    {
      "CommandId": "0000",
      "UID": "33",
      "Title": "Background Color",
      "TAG_Title": "TAG_Title_SubMenu",
      "AssociatedAction": "None",
      "MenuType": "List",
      "List": [
        {
          "text": "None",
          "value": "0"
        },
        {
          "text": "Black",
          "value": "1"
        }
      ]
    },
    {
      "CommandId": "0000",
      "UID": "34",
      "Title": "Rest",
      "TAG_Title": "TAG_Title_SubMenu",
      "AssociatedAction": "None",
      "MenuType": "List",
      "List": [
        {
          "text": "No",
          "value": "0"
        },
        {
          "text": "Yes",
          "value": "1"
        }
      ]
    },
    {
      "CommandId": "0654",
      "UID": "35",
      "Title": "Back",
      "TAG_Title": "TAG_Title_SubMenu",
      "AssociatedAction": "None",
      "MenuType": "Back"
    },
    {
      "CommandId": "0C12",
      "UID": "36",
      "Title": "BrilliantColor™",
      "TAG_Title": "TAG_Title_SubMenu",
      "AssociatedAction": "None",
      "MenuType": "SeekBar",
      "List": [
        {
          "minimum": "1",
          "value": "0"
        },
        {
          "maximum": "10",
          "value": "1"
        }
      ]
    },
    {
      "CommandId": "0C05",
      "UID": "37",
      "Title": "Color Temperature",
      "TAG_Title": "TAG_Title_SubMenu",
      "AssociatedAction": "None",
      "MenuType": "List",
      "List": [
        {
          "text": "6500K",
          "value": "4"
        },
        {
          "text": "6750K",
          "value": "5"
        },
        {
          "text": "7000K",
          "value": "6"
        },
        {
          "text": "7250K",
          "value": "7"
        },
        {
          "text": "7500K",
          "value": "8"
        }
      ]
    },
    {
      "CommandId": "0000",
      "UID": "38",
      "Title": "Color Matching",
      "TAG_Title": "TAG_Title_SubMenu",
      "AssociatedAction": "None",
      "MenuType": "Button"
    },
    {
      "CommandId": "0654",
      "UID": "39",
      "Title": "Back",
      "TAG_Title": "TAG_Title_SubMenu",
      "AssociatedAction": "None",
      "MenuType": "Back"
    },
    {
      "CommandId": "0000",
      "UID": "40",
      "Title": "Left",
      "TAG_Title": "TAG_Title_SubMenu",
      "AssociatedAction": "None",
      "MenuType": "Button"
    },
    {
      "CommandId": "0000",
      "UID": "41",
      "Title": "Right",
      "TAG_Title": "TAG_Title_SubMenu",
      "AssociatedAction": "None",
      "MenuType": "Button"
    },
    {
      "CommandId": "0000",
      "UID": "42",
      "Title": "Top",
      "TAG_Title": "TAG_Title_SubMenu",
      "AssociatedAction": "None",
      "MenuType": "Button"
    },
    {
      "CommandId": "0000",
      "UID": "43",
      "Title": "Bottom",
      "TAG_Title": "TAG_Title_SubMenu",
      "AssociatedAction": "None",
      "MenuType": "Button"
    },
    {
      "CommandId": "0000",
      "UID": "44",
      "Title": "Overlap Grid Number",
      "TAG_Title": "TAG_Title_SubMenu",
      "AssociatedAction": "None",
      "MenuType": "List",
      "List": [
        {
          "text": "4",
          "value": "0"
        },
        {
          "text": "6",
          "value": "1"
        },
        {
          "text": "8",
          "value": "2"
        },
        {
          "text": "10",
          "value": "3"
        },
        {
          "text": "12",
          "value": "4"
        }
      ]
    },
    {
      "CommandId": "0000",
      "UID": "45",
      "Title": "Blend Gamma",
      "TAG_Title": "TAG_Title_SubMenu",
      "AssociatedAction": "None",
      "MenuType": "List",
      "List": [
        {
          "text": "1.8",
          "value": "0"
        },
        {
          "text": "2.0",
          "value": "1"
        },
        {
          "text": "2.2",
          "value": "2"
        },
        {
          "text": "2.4",
          "value": "3"
        },
        {
          "text": "2.6",
          "value": "4"
        }
      ]
    },
    {
      "CommandId": "0654",
      "UID": "46",
      "Title": "Back",
      "TAG_Title": "TAG_Title_SubMenu",
      "AssociatedAction": "None",
      "MenuType": "Back"
    },
    {
      "CommandId": "0C13",
      "UID": "47",
      "Title": "Color",
      "TAG_Title": "TAG_Title_SubMenu",
      "AssociatedAction": "None",
      "MenuType": "List",
      "List": [
        {
          "text": "R",
          "value": "0"
        },
        {
          "text": "G",
          "value": "1"
        },
        {
          "text": "B",
          "value": "2"
        },
        {
          "text": "C",
          "value": "3"
        },
        {
          "text": "T",
          "value": "5"
        },
        {
          "text": "M",
          "value": "4"
        },
        {
          "text": "W",
          "value": "6"
        }
      ]
    },
    {
      "CommandId": "0C14",
      "UID": "48",
      "Title": "Hue",
      "TAG_Title": "TAG_Title_SubMenu",
      "AssociatedAction": "None",
      "MenuType": "SeekBar",
      "List": [
        {
          "minimum": "-50",
          "value": "0"
        },
        {
          "maximum": "50",
          "value": "1"
        }
      ]
    },
    {
      "CommandId": "0C15",
      "UID": "49",
      "Title": "Saturation",
      "TAG_Title": "TAG_Title_SubMenu",
      "AssociatedAction": "None",
      "MenuType": "SeekBar",
      "List": [
        {
          "minimum": "-50",
          "value": "0"
        },
        {
          "maximum": "50",
          "value": "1"
        }
      ]
    },
    {
      "CommandId": "0C16",
      "UID": "50",
      "Title": "Gain",
      "TAG_Title": "TAG_Title_SubMenu",
      "AssociatedAction": "None",
      "MenuType": "SeekBar",
      "List": [
        {
          "minimum": "-50",
          "value": "0"
        },
        {
          "maximum": "50",
          "value": "1"
        }
      ]
    },
    {
      "CommandId": "0000",
      "UID": "51",
      "Title": "Rest",
      "TAG_Title": "TAG_Title_SubMenu",
      "AssociatedAction": "None",
      "MenuType": "List",
      "List": [
        {
          "text": "Cancel",
          "value": "0"
        },
        {
          "text": "Yes",
          "value": "1"
        }
      ]
    },
    {
      "CommandId": "0654",
      "UID": "52",
      "Title": "Audio",
      "TAG_Title": "TAG_Title_MainMenu",
      "AssociatedAction": "None",
      "MenuType": "Image",
      "List": [
        {
          "Image": "osd_mainmenu_audio_optoma_basic"
        }
      ]
    },
    {
      "CommandId": "0109",
      "UID": "53",
      "Title": "Internal Speaker",
      "TAG_Title": "TAG_Title_SubMenu",
      "AssociatedAction": "None",
      "MenuType": "Toggle",
      "List": [
        {
          "text": "Off",
          "value": "0"
        },
        {
          "text": "on",
          "value": "1"
        }
      ]
    },
    {
      "CommandId": "0101",
      "UID": "54",
      "Title": "Mute",
      "TAG_Title": "TAG_Title_SubMenu",
      "AssociatedAction": "None",
      "MenuType": "Toggle",
      "List": [
        {
          "text": "Off",
          "value": "0"
        },
        {
          "text": "on",
          "value": "1"
        }
      ]
    },
    {
      "CommandId": "0102",
      "UID": "55",
      "Title": "Volume",
      "TAG_Title": "TAG_Title_SubMenu",
      "AssociatedAction": "None",
      "MenuType": "SeekBar",
      "List": [
        {
          "minimum": "0",
          "value": "0"
        },
        {
          "maximum": "15",
          "value": "1"
        }
      ]
    },
    {
      "CommandId": "0108",
      "UID": "56",
      "Title": "Microphone",
      "TAG_Title": "TAG_Title_SubMenu",
      "AssociatedAction": "None",
      "MenuType": "Toggle",
      "List": [
        {
          "text": "Off",
          "value": "0"
        },
        {
          "text": "on",
          "value": "1"
        }
      ]
    },
    {
      "CommandId": "0103",
      "UID": "57",
      "Title": "Mic Volume",
      "TAG_Title": "TAG_Title_SubMenu",
      "AssociatedAction": "None",
      "MenuType": "SeekBar",
      "List": [
        {
          "minimum": "0",
          "value": "0"
        },
        {
          "maximum": "30",
          "value": "1"
        }
      ]
    },
    {
      "CommandId": "0654",
      "UID": "58",
      "Title": "Setup",
      "TAG_Title": "TAG_Title_MainMenu",
      "AssociatedAction": "None",
      "MenuType": "Image",
      "List": [
        {
          "Image": "osd_mainmenu_installation_optoma_basic"
        }
      ]
    },
    {
      "CommandId": "080F",
      "UID": "59",
      "Title": "Projection",
      "TAG_Title": "TAG_Title_SubMenu",
      "AssociatedAction": "None",
      "MenuType": "List",
      "List": [
        {
          "text": "Front",
          "value": "0"
        },
        {
          "text": "Rear",
          "value": "2"
        },
        {
          "text": "Ceiling-top",
          "value": "1"
        },
        {
          "text": "Rear-top",
          "value": "3"
        }
      ]
    },
    {
      "CommandId": "0654",
      "UID": "60",
      "Title": "Filter Settings",
      "TAG_Title": "TAG_Title_SubMenu",
      "AssociatedAction": "None",
      "MenuType": "Button"
    },
    {
      "CommandId": "0654",
      "UID": "61",
      "Title": "Power Settings",
      "TAG_Title": "TAG_Title_SubMenu",
      "AssociatedAction": "None",
      "MenuType": "Button"
    },
    {
      "CommandId": "0000",
      "UID": "62",
      "Title": "Test Pattern",
      "TAG_Title": "TAG_Title_SubMenu",
      "AssociatedAction": "None",
      "MenuType": "List",
      "List": [
        {
          "text": "Green Grid",
          "value": "0"
        },
        {
          "text": "Magenta Grid",
          "value": "1"
        },
        {
          "text": "White Grid",
          "value": "2"
        },
        {
          "text": "White",
          "value": "3"
        },
        {
          "text": "Off",
          "value": "4"
        }
      ]
    },
    {
      "CommandId": "0654",
      "UID": "63",
      "Title": "Remote Settings",
      "TAG_Title": "TAG_Title_SubMenu",
      "AssociatedAction": "None",
      "MenuType": "Button"
    },
    {
      "CommandId": "0646",
      "UID": "64",
      "Title": "Projector ID",
      "TAG_Title": "TAG_Title_SubMenu",
      "AssociatedAction": "None",
      "MenuType": "SeekBar",
      "List": [
        {
          "minimum": "0",
          "value": "0"
        },
        {
          "maximum": "99",
          "value": "1"
        }
      ]
    },
    {
      "CommandId": "0654",
      "UID": "65",
      "Title": "Options",
      "TAG_Title": "TAG_Title_SubMenu",
      "AssociatedAction": "None",
      "MenuType": "Button"
    },
    {
      "CommandId": "0654",
      "UID": "66",
      "Title": "Reset",
      "TAG_Title": "TAG_Title_SubMenu",
      "AssociatedAction": "None",
      "MenuType": "Button"
    },
    {
      "CommandId": "0654",
      "UID": "67",
      "Title": "Back",
      "TAG_Title": "TAG_Title_SubMenu",
      "AssociatedAction": "None",
      "MenuType": "Back"
    },
    {
      "CommandId": "0664",
      "UID": "68",
      "Title": "Filter Usage Hours",
      "TAG_Title": "TAG_Title_SubMenu",
      "AssociatedAction": "None",
      "MenuType": "TextView"
    },
    {
      "CommandId": "0665",
      "UID": "69",
      "Title": "Optional Filter Installed",
      "TAG_Title": "TAG_Title_SubMenu",
      "AssociatedAction": "None",
      "MenuType": "Toggle",
      "List": [
        {
          "text": "Off",
          "value": "0"
        },
        {
          "text": "on",
          "value": "1"
        }
      ]
    },
    {
      "CommandId": "0666",
      "UID": "70",
      "Title": "Filter Reminder",
      "TAG_Title": "TAG_Title_SubMenu",
      "AssociatedAction": "None",
      "MenuType": "List",
      "List": [
        {
          "text": "Off",
          "value": "0"
        },
        {
          "text": "300hr",
          "value": "1"
        },
        {
          "text": "500hr",
          "value": "2"
        },
        {
          "text": "800hr",
          "value": "3"
        },
        {
          "text": "1000hr",
          "value": "4"
        }
      ]
    },
    {
      "CommandId": "0000",
      "UID": "71",
      "Title": "Filter Reset",
      "TAG_Title": "TAG_Title_SubMenu",
      "AssociatedAction": "None",
      "MenuType": "List",
      "List": [
        {
          "text": "Cancel",
          "value": "0"
        },
        {
          "text": "Yes",
          "value": "1"
        }
      ]
    },
    {
      "CommandId": "0654",
      "UID": "72",
      "Title": "Back",
      "TAG_Title": "TAG_Title_SubMenu",
      "AssociatedAction": "None",
      "MenuType": "Back"
    },
    {
      "CommandId": "0606",
      "UID": "73",
      "Title": "Direct Power On",
      "TAG_Title": "TAG_Title_SubMenu",
      "AssociatedAction": "None",
      "MenuType": "Toggle",
      "List": [
        {
          "text": "Off",
          "value": "0"
        },
        {
          "text": "On",
          "value": "1"
        }
      ]
    },
    {
      "CommandId": "0605",
      "UID": "74",
      "Title": "Auto Power Off (min.)",
      "TAG_Title": "TAG_Title_SubMenu",
      "AssociatedAction": "None",
      "MenuType": "SeekBar",
      "List": [
        {
          "minimum": "0",
          "value": "0"
        },
        {
          "maximum": "120",
          "value": "1"
        }
      ]
    },
    {
      "CommandId": "0657",
      "UID": "75",
      "Title": "Power Mode (Standby)",
      "TAG_Title": "TAG_Title_SubMenu",
      "AssociatedAction": "None",
      "MenuType": "List",
      "List": [
        {
          "text": "Eco.",
          "value": "0"
        },
        {
          "text": "Active",
          "value": "1"
        }
      ]
    },
    {
      "CommandId": "063E",
      "UID": "76",
      "Title": "USB Power",
      "TAG_Title": "TAG_Title_SubMenu",
      "AssociatedAction": "None",
      "MenuType": "Toggle",
      "List": [
        {
          "text": "Off",
          "value": "0"
        },
        {
          "text": "On",
          "value": "1"
        }
      ]
    },
    {
      "CommandId": "0658",
      "UID": "77",
      "Title": "SSI Power Mode",
      "TAG_Title": "TAG_Title_SubMenu",
      "AssociatedAction": "None",
      "MenuType": "List",
      "List": [
        {
          "text": "Normal",
          "value": "0"
        },
        {
          "text": "Eco",
          "value": "1"
        }
      ]
    },
    {
      "CommandId": "0654",
      "UID": "78",
      "Title": "Back",
      "TAG_Title": "TAG_Title_SubMenu",
      "AssociatedAction": "None",
      "MenuType": "Back"
    },
    {
      "CommandId": "0659",
      "UID": "79",
      "Title": "IR Function",
      "TAG_Title": "TAG_Title_SubMenu",
      "AssociatedAction": "None",
      "MenuType": "List",
      "List": [
        {
          "text": "Off",
          "value": "0"
        },
        {
          "text": "On",
          "value": "1"
        }
      ]
    },
    {
      "CommandId": "065A",
      "UID": "80",
      "Title": "Remote Code",
      "TAG_Title": "TAG_Title_SubMenu",
      "AssociatedAction": "None",
      "MenuType": "SeekBar",
      "List": [
        {
          "minimum": "1",
          "value": "0"
        },
        {
          "maximum": "99",
          "value": "1"
        }
      ]
    },
    {
      "CommandId": "065B",
      "UID": "81",
      "Title": "User1",
      "TAG_Title": "TAG_Title_SubMenu",
      "AssociatedAction": "None",
      "MenuType": "List",
      "List": [
        {
          "text": "HDMI2",
          "value": "0"
        },
        {
          "text": "Test Pattern",
          "value": "1"
        },
        {
          "text": "LAN",
          "value": "2"
        },
        {
          "text": "Brightness",
          "value": "3"
        },
        {
          "text": "Contrast",
          "value": "4"
        },
        {
          "text": "Color Matching",
          "value": "5"
        },
        {
          "text": "Color Temperature",
          "value": "6"
        },
        {
          "text": "Gamma",
          "value": "7"
        },
        {
          "text": "Projection",
          "value": "8"
        },
        {
          "text": "Lamp Settings",
          "value": "9"
        },
        {
          "text": "Zoom",
          "value": "10"
        },
        {
          "text": "Freeze",
          "value": "11"
        }
      ]
    },
    {
      "CommandId": "065C",
      "UID": "82",
      "Title": "User2",
      "TAG_Title": "TAG_Title_SubMenu",
      "AssociatedAction": "None",
      "MenuType": "List",
      "List": [
        {
          "text": "HDMI2",
          "value": "0"
        },
        {
          "text": "Test Pattern",
          "value": "1"
        },
        {
          "text": "LAN",
          "value": "2"
        },
        {
          "text": "Brightness",
          "value": "3"
        },
        {
          "text": "Contrast",
          "value": "4"
        },
        {
          "text": "Color Matching",
          "value": "5"
        },
        {
          "text": "Color Temperature",
          "value": "6"
        },
        {
          "text": "Gamma",
          "value": "7"
        },
        {
          "text": "Projection",
          "value": "8"
        },
        {
          "text": "Lamp Settings",
          "value": "9"
        },
        {
          "text": "Zoom",
          "value": "10"
        },
        {
          "text": "Freeze",
          "value": "11"
        }
      ]
    },
    {
      "CommandId": "065D",
      "UID": "83",
      "Title": "User3",
      "TAG_Title": "TAG_Title_SubMenu",
      "AssociatedAction": "None",
      "MenuType": "List",
      "List": [
        {
          "text": "HDMI2",
          "value": "0"
        },
        {
          "text": "Test Pattern",
          "value": "1"
        },
        {
          "text": "LAN",
          "value": "2"
        },
        {
          "text": "Brightness",
          "value": "3"
        },
        {
          "text": "Contrast",
          "value": "4"
        },
        {
          "text": "Color Matching",
          "value": "5"
        },
        {
          "text": "Color Temperature",
          "value": "6"
        },
        {
          "text": "Gamma",
          "value": "7"
        },
        {
          "text": "Projection",
          "value": "8"
        },
        {
          "text": "Lamp Settings",
          "value": "9"
        },
        {
          "text": "Zoom",
          "value": "10"
        },
        {
          "text": "Freeze",
          "value": "11"
        }
      ]
    },
    {
      "CommandId": "0654",
      "UID": "84",
      "Title": "Back",
      "TAG_Title": "TAG_Title_SubMenu",
      "AssociatedAction": "None",
      "MenuType": "Back"
    },
    {
      "CommandId": "0625",
      "UID": "85",
      "Title": "Language",
      "TAG_Title": "TAG_Title_SubMenu",
      "AssociatedAction": "None",
      "MenuType": "List",
      "List": [
        {
          "text": "English",
          "value": "0"
        },
        {
          "text": "繁體中文",
          "value": "1"
        },
        {
          "text": "簡体中文",
          "value": "2"
        }
      ]
    },
    {
      "CommandId": "0654",
      "UID": "86",
      "Title": "Menu Settings",
      "TAG_Title": "TAG_Title_SubMenu",
      "AssociatedAction": "None",
      "MenuType": "Button"
    },
    {
      "CommandId": "0609",
      "UID": "87",
      "Title": "Auto Source",
      "TAG_Title": "TAG_Title_SubMenu",
      "AssociatedAction": "None",
      "MenuType": "Toggle",
      "List": [
        {
          "text": "Off",
          "value": "0"
        },
        {
          "text": "On",
          "value": "1"
        }
      ]
    },
    {
      "CommandId": "0000",
      "UID": "88",
      "Title": "Input Source",
      "TAG_Title": "TAG_Title_SubMenu",
      "AssociatedAction": "None",
      "MenuType": "List",
      "List": [
        {
          "text": "HDMI1",
          "value": "0"
        },
        {
          "text": "HDMI2",
          "value": "1"
        },
        {
          "text": "HDMI3",
          "value": "2"
        },
        {
          "text": "HDBaseT",
          "value": "3"
        },
        {
          "text": "VGA",
          "value": "4"
        }
      ]
    },
    {
      "CommandId": "0654",
      "UID": "89",
      "Title": "Input Name",
      "TAG_Title": "TAG_Title_SubMenu",
      "AssociatedAction": "None",
      "MenuType": "Button"
    },
    {
      "CommandId": "0651",
      "UID": "90",
      "Title": "VGA Out(Standby)",
      "TAG_Title": "TAG_Title_SubMenu",
      "AssociatedAction": "None",
      "MenuType": "Toggle",
      "List": [
        {
          "text": "Off",
          "value": "0"
        },
        {
          "text": "On",
          "value": "1"
        }
      ]
    },
    {
      "CommandId": "0608",
      "UID": "91",
      "Title": "High Altitude",
      "TAG_Title": "TAG_Title_SubMenu",
      "AssociatedAction": "None",
      "MenuType": "Toggle",
      "List": [
        {
          "text": "Off",
          "value": "0"
        },
        {
          "text": "On",
          "value": "1"
        }
      ]
    },
    {
      "CommandId": "0645",
      "UID": "92",
      "Title": "Display Mode Lock",
      "TAG_Title": "TAG_Title_SubMenu",
      "AssociatedAction": "None",
      "MenuType": "List",
      "List": [
        {
          "text": "Off",
          "value": "0"
        },
        {
          "text": "On",
          "value": "1"
        }
      ]
    },
    {
      "CommandId": "0000",
      "UID": "93",
      "Title": "Information Hide",
      "TAG_Title": "TAG_Title_SubMenu",
      "AssociatedAction": "None",
      "MenuType": "List",
      "List": [
        {
          "text": "Off",
          "value": "0"
        },
        {
          "text": "On",
          "value": "1"
        }
      ]
    },
    {
      "CommandId": "061B",
      "UID": "94",
      "Title": "Background Color",
      "TAG_Title": "TAG_Title_SubMenu",
      "AssociatedAction": "None",
      "MenuType": "List",
      "List": [
        {
          "text": "None",
          "value": "0"
        },
        {
          "text": "Blue",
          "value": "1"
        },
        {
          "text": "Red",
          "value": "2"
        },
        {
          "text": "Green",
          "value": "3"
        },
        {
          "text": "Gray",
          "value": "4"
        },
        {
          "text": "Logo",
          "value": "5"
        }
      ]
    },
    {
      "CommandId": "0000",
      "UID": "95",
      "Title": "Projector Name",
      "TAG_Title": "TAG_Title_SubMenu",
      "AssociatedAction": "None",
      "MenuType": "EditText"
    },
    {
      "CommandId": "0654",
      "UID": "96",
      "Title": "Back",
      "TAG_Title": "TAG_Title_SubMenu",
      "AssociatedAction": "None",
      "MenuType": "Back"
    },
    {
      "CommandId": "0000",
      "UID": "97",
      "Title": "Reset OSD",
      "TAG_Title": "TAG_Title_SubMenu",
      "AssociatedAction": "None",
      "MenuType": "List",
      "List": [
        {
          "text": "Cancel",
          "value": "0"
        },
        {
          "text": "Yes",
          "value": "1"
        }
      ]
    },
    {
      "CommandId": "0000",
      "UID": "98",
      "Title": "Reset to Default",
      "TAG_Title": "TAG_Title_SubMenu",
      "AssociatedAction": "None",
      "MenuType": "List",
      "List": [
        {
          "text": "Cancel",
          "value": "0"
        },
        {
          "text": "Yes",
          "value": "1"
        }
      ]
    },
    {
      "CommandId": "0654",
      "UID": "99",
      "Title": "Back",
      "TAG_Title": "TAG_Title_SubMenu",
      "AssociatedAction": "None",
      "MenuType": "Back"
    },
    {
      "CommandId": "0000",
      "UID": "100",
      "Title": "Menu Location",
      "TAG_Title": "TAG_Title_SubMenu",
      "AssociatedAction": "None",
      "MenuType": "Image"
    },
    {
      "CommandId": "0000",
      "UID": "101",
      "Title": "Menu Timer",
      "TAG_Title": "TAG_Title_SubMenu",
      "AssociatedAction": "None",
      "MenuType": "List",
      "List": [
        {
          "text": "Off",
          "value": "0"
        },
        {
          "text": "5Sec",
          "value": "1"
        },
        {
          "text": "10Sec",
          "value": "2"
        }
      ]
    },
    {
      "CommandId": "0654",
      "UID": "102",
      "Title": "Back",
      "TAG_Title": "TAG_Title_SubMenu",
      "AssociatedAction": "None",
      "MenuType": "Back"
    },
    {
      "CommandId": "0000",
      "UID": "103",
      "Title": "HDMI1",
      "TAG_Title": "TAG_Title_SubMenu",
      "AssociatedAction": "None",
      "MenuType": "List",
      "List": [
        {
          "text": "Custom",
          "value": "0"
        },
        {
          "text": "Default",
          "value": "1"
        }
      ]
    },
    {
      "CommandId": "0000",
      "UID": "104",
      "Title": "HDMI2",
      "TAG_Title": "TAG_Title_SubMenu",
      "AssociatedAction": "None",
      "MenuType": "List",
      "List": [
        {
          "text": "Custom",
          "value": "0"
        },
        {
          "text": "Default",
          "value": "1"
        }
      ]
    },
    {
      "CommandId": "0000",
      "UID": "105",
      "Title": "HDMI3",
      "TAG_Title": "TAG_Title_SubMenu",
      "AssociatedAction": "None",
      "MenuType": "List",
      "List": [
        {
          "text": "Custom",
          "value": "0"
        },
        {
          "text": "Default",
          "value": "1"
        }
      ]
    },
    {
      "CommandId": "0000",
      "UID": "106",
      "Title": "HDBaseT",
      "TAG_Title": "TAG_Title_SubMenu",
      "AssociatedAction": "None",
      "MenuType": "List",
      "List": [
        {
          "text": "Custom",
          "value": "0"
        },
        {
          "text": "Default",
          "value": "1"
        }
      ]
    },
    {
      "CommandId": "0000",
      "UID": "107",
      "Title": "VGA",
      "TAG_Title": "TAG_Title_SubMenu",
      "AssociatedAction": "None",
      "MenuType": "List",
      "List": [
        {
          "text": "Custom",
          "value": "0"
        },
        {
          "text": "Default",
          "value": "1"
        }
      ]
    },
    {
      "CommandId": "0000",
      "UID": "108",
      "Title": "Network",
      "TAG_Title": "TAG_Title_MainMenu",
      "AssociatedAction": "None",
      "MenuType": "Image",
      "List": [
        {
          "Image": "osd_mainmenu_threed_optoma_basic"
        }
      ]
    },
    {
      "CommandId": "0000",
      "UID": "109",
      "Title": "MAC Address",
      "TAG_Title": "TAG_Title_SubMenu",
      "AssociatedAction": "None",
      "MenuType": "Button"
    },
    {
      "CommandId": "0000",
      "UID": "110",
      "Title": "DHCP",
      "TAG_Title": "TAG_Title_SubMenu",
      "AssociatedAction": "None",
      "MenuType": "List",
      "List": [
        {
          "text": "Off",
          "value": "0"
        },
        {
          "text": "On",
          "value": "1"
        }
      ]
    },
    {
      "CommandId": "0000",
      "UID": "111",
      "Title": "IP Address",
      "TAG_Title": "TAG_Title_SubMenu",
      "AssociatedAction": "None",
      "MenuType": "EditText"
    },
    {
      "CommandId": "0000",
      "UID": "112",
      "Title": "Subnet Mask",
      "TAG_Title": "TAG_Title_SubMenu",
      "AssociatedAction": "None",
      "MenuType": "EditText"
    },
    {
      "CommandId": "0000",
      "UID": "113",
      "Title": "Gateway",
      "TAG_Title": "TAG_Title_SubMenu",
      "AssociatedAction": "None",
      "MenuType": "EditText"
    },
    {
      "CommandId": "0000",
      "UID": "114",
      "Title": "DNS",
      "TAG_Title": "TAG_Title_SubMenu",
      "AssociatedAction": "None",
      "MenuType": "EditText"
    },
    {
      "CommandId": "0000",
      "UID": "115",
      "Title": "Reset",
      "TAG_Title": "TAG_Title_SubMenu",
      "AssociatedAction": "None",
      "MenuType": "Button"
    },
    {
      "CommandId": "0654",
      "UID": "116",
      "Title": "Info",
      "TAG_Title": "TAG_Title_MainMenu",
      "AssociatedAction": "None",
      "MenuType": "Image",
      "List": [
        {
          "Image": "osd_mainmenu_info_optoma_basic"
        }
      ]
    },
    {
      "CommandId": "061E",
      "UID": "117",
      "Title": "Model Name",
      "TAG_Title": "TAG_Title_SubMenu",
      "AssociatedAction": "None",
      "MenuType": "TextView"
    },
    {
      "CommandId": "0655",
      "UID": "118",
      "Title": "Serial Number",
      "TAG_Title": "TAG_Title_SubMenu",
      "AssociatedAction": "None",
      "MenuType": "TextView"
    },
    {
      "CommandId": "0627",
      "UID": "119",
      "Title": "Source",
      "TAG_Title": "TAG_Title_SubMenu",
      "AssociatedAction": "None",
      "MenuType": "TextView"
    },
    {
      "CommandId": "0635",
      "UID": "120",
      "Title": "Resolution",
      "TAG_Title": "TAG_Title_SubMenu",
      "AssociatedAction": "None",
      "MenuType": "TextView"
    },
    {
      "CommandId": "0656",
      "UID": "121",
      "Title": "Refresh Rate",
      "TAG_Title": "TAG_Title_SubMenu",
      "AssociatedAction": "None",
      "MenuType": "TextView"
    },
    {
      "CommandId": "0000",
      "UID": "122",
      "Title": "Display Mode",
      "TAG_Title": "TAG_Title_SubMenu",
      "AssociatedAction": "None",
      "MenuType": "TextView"
    },
    {
      "CommandId": "0654",
      "UID": "123",
      "Title": "SSI Hours",
      "TAG_Title": "TAG_Title_SubMenu",
      "AssociatedAction": "None",
      "MenuType": "Button"
    },
    {
      "CommandId": "0661",
      "UID": "124",
      "Title": "Remote Code",
      "TAG_Title": "TAG_Title_SubMenu",
      "AssociatedAction": "None",
      "MenuType": "TextView"
    },
    {
      "CommandId": "0662",
      "UID": "125",
      "Title": "IP Address",
      "TAG_Title": "TAG_Title_SubMenu",
      "AssociatedAction": "None",
      "MenuType": "TextView"
    },
    {
      "CommandId": "0663",
      "UID": "126",
      "Title": "Projector ID",
      "TAG_Title": "TAG_Title_SubMenu",
      "AssociatedAction": "None",
      "MenuType": "TextView"
    },
    {
      "CommandId": "0664",
      "UID": "127",
      "Title": "Filter Usage Hours",
      "TAG_Title": "TAG_Title_SubMenu",
      "AssociatedAction": "None",
      "MenuType": "TextView"
    },
    {
      "CommandId": "0000",
      "UID": "128",
      "Title": "SSI Power Mode",
      "TAG_Title": "TAG_Title_SubMenu",
      "AssociatedAction": "None",
      "MenuType": "TextView"
    },
    {
      "CommandId": "0654",
      "UID": "129",
      "Title": "FW Version",
      "TAG_Title": "TAG_Title_SubMenu",
      "AssociatedAction": "None",
      "MenuType": "Button"
    },
    {
      "CommandId": "0654",
      "UID": "130",
      "Title": "Back",
      "TAG_Title": "TAG_Title_SubMenu",
      "AssociatedAction": "None",
      "MenuType": "Back"
    },
    {
      "CommandId": "065E",
      "UID": "131",
      "Title": "Normal",
      "TAG_Title": "TAG_Title_SubMenu",
      "AssociatedAction": "None",
      "MenuType": "TextView"
    },
    {
      "CommandId": "065F",
      "UID": "132",
      "Title": "Eco.",
      "TAG_Title": "TAG_Title_SubMenu",
      "AssociatedAction": "None",
      "MenuType": "TextView"
    },
    {
      "CommandId": "0660",
      "UID": "133",
      "Title": "Total",
      "TAG_Title": "TAG_Title_SubMenu",
      "AssociatedAction": "None",
      "MenuType": "TextView"
    },
    {
      "CommandId": "0654",
      "UID": "134",
      "Title": "Back",
      "TAG_Title": "TAG_Title_SubMenu",
      "AssociatedAction": "None",
      "MenuType": "Back"
    },
    {
      "CommandId": "0622",
      "UID": "135",
      "Title": "System",
      "TAG_Title": "TAG_Title_SubMenu",
      "AssociatedAction": "None",
      "MenuType": "TextView"
    },
    {
      "CommandId": "0623",
      "UID": "136",
      "Title": "LAN",
      "TAG_Title": "TAG_Title_SubMenu",
      "AssociatedAction": "None",
      "MenuType": "TextView"
    },
    {
      "CommandId": "0624",
      "UID": "137",
      "Title": "MCU",
      "TAG_Title": "TAG_Title_SubMenu",
      "AssociatedAction": "None",
      "MenuType": "TextView"
    }
  ]
}